Spatially-informed differential gene expression • spatialGE
…
The output of STdiff is a list, where each element is a
data frame containing the test results for each sample:

print(deg[['ST_mel1_rep2']])
#> # A tibble: 3,000 × 9
#>    sample  gene  avg_log2fc cluster_1 mm_p_val adj_p_val exp_p_val exp_adj_p_val
#>    <chr>   <chr>      <dbl> <chr>        <dbl>     <dbl>     <dbl>         <dbl>
#>  1 ST_mel… GNAS      -0.715 1         2.11e-15  4.36e-14   1.44e-9 0.00000000514
#>  2 ST_mel… LYPL…     -0.404 1         1.60e- 9  1.68e- 8   3.36e-9 0.0000000110 
#>  3 ST_mel… PCNA      -0.746 1         0         0          1.79e-8 0.0000000546 
#>  4 ST_mel… METT…     -0.730 1         0         0          3.73e-7 0.000000912  
#>  5 ST_mel… FASN      -0.631 1         8.95e-10  9.69e- 9   1.90e-6 0.00000382   
#>  6 ST_mel… RPS2…     -0.739 1         3.80e-14  6.82e-13   5.90e-6 0.0000116    
#>  7 ST_mel… EPHA2     -0.466 1         3.22e-12  4.53e-11   1.12e-5 0.0000213    
#>  8 ST_mel… IVNS…     -0.683 1         3.89e-14  6.86e-13   1.64e-5 0.0000305    
#>  9 ST_mel… B2M       -0.426 1         9.20e- 8  7.67e- 7   2.07e-5 0.0000381    
#> 10 ST_mel… PRAME     -0.656 1         4.55e-12  6.29e-11   2.16e-5 0.0000391    
#> # ℹ 2,990 more rows
#> # ℹ 1 more variable: comments <chr>
…
deg_wilcox <- STdiff(melanoma, 
                     samples='ST_mel1_rep2', 
                     w=0.025, k='dtc', deepSplit=FALSE, 
                     topgenes=1000,
                     test_type='wilcoxon', cores=2)
#> Testing STclust assignment (w=0.025, dtc deepSplit=False)...
#>  Running Wilcoxon's tests...
#>  Completed Wilcoxon's tests (0.46 min).
#> STdiff completed in 0.46 min.

No spatial tests are executed when Wilcoxon’s Rank tests or T-tests
are requested.

print(deg_wilcox[['ST_mel1_rep2']])
#> # A tibble: 3,000 × 6
#>    sample       gene   avg_log2fc cluster_1 wilcox_p_val adj_p_val
#>    <chr>        <chr>       <dbl> <chr>            <dbl>     <dbl>
#>  1 ST_mel1_rep2 IGLL5       1.03  1             1.22e-15  3.90e-14
#>  2 ST_mel1_rep2 PCNA       -0.746 1             1.66e-15  4.99e-14
#>  3 ST_mel1_rep2 GNAS       -0.715 1             5.08e-15  1.34e-13
#>  4 ST_mel1_rep2 COL1A1      1.06  1             5.77e-14  1.24e-12
#>  5 ST_mel1_rep2 METTL9     -0.730 1             1.51e-13  3.10e-12
#>  6 ST_mel1_rep2 CPEB2      -0.579 1             1.45e-12  2.56e-11
#>  7 ST_mel1_rep2 SSFA2      -0.612 1             2.05e-12  3.57e-11
#>  8 ST_mel1_rep2 EPHA2      -0.466 1             4.10e-12  6.94e-11
#>  9 ST_mel1_rep2 STK32A     -0.451 1             9.61e-12  1.53e-10
#> 10 ST_mel1_rep2 PEG10      -0.469 1             1.62e-11  2.46e-10
#> # ℹ 2,990 more rows
…
