Detection of gene set spatial patterns and expression gradients in CosMx-SMI • spatialGE
…
deg <- STdiff(lung, w=0.02, k='dtc', deepSplit=FALSE, test_type='wilcoxon', cores=2)
#> Testing STclust assignment (w=0.02, dtc deepSplit=False)...
#>  Running Wilcoxon's tests...
#>  Completed Wilcoxon's tests (5.77 min).
#> STdiff completed in 5.77 min.

Then, the top 3 DE genes per cluster in the samples showing NOTCH
signaling spatial patterns are identified:

bind_rows(deg) %>%
  filter(adj_p_val < 0.05 & abs(avg_log2fc > 0.05)) %>%
  filter(sample %in% c('Lung6_fov_4', 'Lung6_fov_6', 'Lung6_fov_7')) %>%
  group_by(sample, cluster_1) %>%
  slice_head(n=3)
#> # A tibble: 57 × 6
#> # Groups:   sample, cluster_1 [19]
#>    sample      gene     avg_log2fc cluster_1 wilcox_p_val adj_p_val
#>    <chr>       <chr>         <dbl> <chr>            <dbl>     <dbl>
#>  1 Lung6_fov_4 KRT15         0.895 1            7.13e-194 8.56e-191
#>  2 Lung6_fov_4 IL1R1         0.361 1            1.24e- 82 2.29e- 80
#>  3 Lung6_fov_4 KRT17         0.416 1            1.58e- 76 2.23e- 74
#>  4 Lung6_fov_4 H4C3          0.574 2            2.87e-105 8.12e-103
#>  5 Lung6_fov_4 HSP90AA1      0.473 2            4.61e- 94 1.05e- 91
#>  6 Lung6_fov_4 H2AZ1         0.424 2            1.37e- 87 2.74e- 85
#>  7 Lung6_fov_4 CD74          0.697 3            4.70e-226 2.26e-222
#>  8 Lung6_fov_4 HLA-DRB1      0.790 3            7.49e-211 1.20e-207
#>  9 Lung6_fov_4 VIM           0.533 3            2.84e-180 2.72e-177
#> 10 Lung6_fov_4 KRT13         1.06  4            1.59e-131 7.62e-129
#> # ℹ 47 more rows
…
